SimRVSequences
…
# View a summary of the output
summary(muts)

##      Length Class  Mode
## fix  17     tbl_df list
## meta  5     tbl_df list

From the output above, we see that vcfR2tidy returns two items named fix and meta. The information we require is contained in the first item named fix.

# View fix (contained in output named muts)
muts$fix

## # A tibble: 15,524 x 17
##    CHROM    POS ID    REF   ALT    QUAL FILTER    AF    AC    NS    AN
##    <chr>  <int> <chr> <chr> <chr> <dbl> <chr>  <dbl> <int> <int> <int>
##  1 21    1.33e7 <NA>  T     C        NA PASS    0        2  2548  5096
##  2 21    1.33e7 <NA>  G     A        NA PASS    0        1  2548  5096
##  3 21    1.33e7 <NA>  A     G        NA PASS    0        1  2548  5096
##  4 21    1.35e7 <NA>  C     T        NA PASS    0.25  1297  2548  5096
##  5 21    1.39e7 <NA>  T     C        NA PASS    0        1  2548  5096
##  6 21    1.39e7 <NA>  T     G        NA PASS    0        6  2548  5096
##  7 21    1.39e7 <NA>  C     G        NA PASS    0        2  2548  5096
##  8 21    1.39e7 <NA>  T     A        NA PASS    0        6  2548  5096
##  9 21    1.39e7 <NA>  T     C        NA PASS    0        1  2548  5096
## 10 21    1.39e7 <NA>  A     G        NA PASS    0        3  2548  5096
## # ... with 15,514 more rows, and 6 more variables: EAS_AF <dbl>,
## #   EUR_AF <dbl>, AFR_AF <dbl>, AMR_AF <dbl>, SAS_AF <dbl>, DP <int>
…
